Chapter 13 Practice
…
categorical_counts <- us_contagious_diseases %>%
  group_by(state, disease) %>%
  summarize()

`summarise()` has regrouped the output.
ℹ Summaries were computed grouped by state and disease.
ℹ Output is grouped by state.
ℹ Use `summarise(.groups = "drop_last")` to silence this message.
ℹ Use `summarise(.by = c(state, disease))` for per-operation grouping
  (`?dplyr::dplyr_by`) instead.

count(categorical_counts)

# A tibble: 51 × 2
# Groups:   state [51]
   state                    n
   <fct>                <int>
 1 Alabama                  7
 2 Alaska                   7
 3 Arizona                  7
 4 Arkansas                 7
 5 California               7
 6 Colorado                 7
 7 Connecticut              7
 8 Delaware                 7
 9 District Of Columbia     7
10 Florida                  7
# ℹ 41 more rows
…
